2023-05-09 17:03:31,563 [1] DEBUG MosSim.Console.MosSimConsole - flushing log events sent before log file was ready
2023-05-09 17:03:31,563 [1] DEBUG MosSim.Console.MosSimConsole - ===>>>
2023-05-09 17:03:31,563 [1] DEBUG MosSim.Console.MosSimConsole - pre-log: 05/09/2023 17:03:31 DEBUG *** starting mossim.exe 1.0.3.1843
2023-05-09 17:03:31,563 [1] DEBUG MosSim.Console.MosSimConsole - pre-log: 05/09/2023 17:03:31 DEBUG successfully register ctrl handler
2023-05-09 17:03:31,563 [1] DEBUG MosSim.Console.MosSimConsole - pre-log: 05/09/2023 17:03:31 INFO *** starting sim1131 with MOS83x_V740.EC3C_SIM.7.40.83
2023-05-09 17:03:31,563 [1] DEBUG MosSim.Console.MosSimConsole - pre-log: 05/09/2023 17:03:31 DEBUG log file not set, using res.dll location
2023-05-09 17:03:31,563 [1] DEBUG MosSim.Console.MosSimConsole - pre-log: 05/09/2023 17:03:31 INFO logging to d:\inka\tcms\mossim_54567.log
2023-05-09 17:03:31,563 [1] DEBUG MosSim.Console.MosSimConsole - <<<===
2023-05-09 17:03:31,626 [1] DEBUG StateMachineLogger - State machine  initializes to state Loading.
2023-05-09 17:03:31,632 [1] DEBUG StateMachineLogger - State machine  initialized to state Loading
2023-05-09 17:03:31,632 [1] INFO  MosSim.Console.MosSimConsole - initializing system server with configuration string: MEDIANAME=LAN IP_PORT=54567
2023-05-09 17:03:31,632 [4] DEBUG StateMachineLogger - State machine  enters initialstate Loading.
2023-05-09 17:03:31,648 [4] INFO  MosSim.Core.SystemUser.IecApplicationManager - Loading IEC application from d:\inka\tcms\res.dll
2023-05-09 17:03:31,648 [4] DEBUG MosSim.ResApi.ResApiAdapter - ResApi version: 14
2023-05-09 17:03:31,648 [4] DEBUG MosSim.Console.MosSimModule - logger initialized with custom appender
2023-05-09 17:03:31,648 [4] DEBUG MosSim.Console.MosSimModule - registering task init callback
2023-05-09 17:03:31,648 [4] DEBUG MosSim.Console.MosSimModule - registering simappexit callback
2023-05-09 17:03:31,664 [4] DEBUG MosSim.Console.MosSimModule - registering runtime error callback
2023-05-09 17:03:31,664 [4] DEBUG StateMachineLogger - State machine  switched from state  to state Loading.
2023-05-09 17:03:31,664 [4] DEBUG StateMachineLogger - State machine  performed  -> Enter Active -> Enter Loading.
2023-05-09 17:03:31,664 [4] DEBUG MosSim.Console.MosSimConsole - starting system server.
2023-05-09 17:03:31,664 [5] DEBUG MosSim.SysComAdapter.SystemServerAdapter - creating layer 4
2023-05-09 17:03:31,664 [4] DEBUG MosSim.Core.SystemUser.IecApplicationManager - Initializing IEC application
2023-05-09 17:03:31,664 [4] DEBUG MosSim.Console.MosSimModule - IEC watchdog initialized with max loop time of 5 [s]
2023-05-09 17:03:31,664 [4] DEBUG MosSim.Console.MosSimModule - initializing hw stub L1_CAN1(0x05ac904c)
2023-05-09 17:03:31,664 [4] DEBUG MosSim.Console.MosSimModule - stub L1_CAN1 (CAN_CH_INIT) registered with address 0x05ac904c
2023-05-09 17:03:31,664 [4] DEBUG MosSim.Console.MosSimModule - initializing hw stub L2_CAN2(0x05ac9068)
2023-05-09 17:03:31,664 [4] DEBUG MosSim.Console.MosSimModule - stub L2_CAN2 (CAN_CH_INIT) registered with address 0x05ac9068
2023-05-09 17:03:31,664 [4] DEBUG MosSim.Console.MosSimModule - initializing hw stub L3_LAN1(0x05ac9084)
2023-05-09 17:03:31,664 [4] DEBUG MosSim.Console.MosSimModule - stub L3_LAN1 (LAN_CH_INIT) registered with address 0x05ac9084
2023-05-09 17:03:31,679 [4] DEBUG MosSim.Console.MosSimModule - initializing hw stub L4_SIO1(0x05ac90a0)
2023-05-09 17:03:31,679 [4] DEBUG MosSim.Console.MosSimModule - stub L4_SIO1 (SIO_CH_INIT) registered with address 0x05ac90a0
2023-05-09 17:03:31,679 [4] DEBUG MosSim.Console.MosSimModule - Initialize task 0
2023-05-09 17:03:31,679 [4] DEBUG MosSim.Core.SystemUser.IecApplicationManager - TaskInfo: Number 0, Interval 0, EventNumber 0, Priority 0
2023-05-09 17:03:31,679 [4] DEBUG MosSim.Console.MosSimModule - IEC application initialized
2023-05-09 17:03:31,679 [4] DEBUG MosSim.ResApi.ResApiAdapter - intitializing mem manager (0x5a40000 - 0x632d000)
2023-05-09 17:03:31,679 [4] DEBUG MosSim.Console.MosSimModule - startAddress=0x05a40000, endAddress=0x0632d000
2023-05-09 17:03:31,679 [4] DEBUG MosSim.Console.MosSimModule - bss_start=0x05b2e000, bss_end=0x05b30920
2023-05-09 17:03:31,679 [4] DEBUG MosSim.Console.MosSimModule - data_start=0x05ac9000, data_end=0x05af5f84
2023-05-09 17:03:31,679 [4] INFO  MosSim.Core.SystemUser.IecApplicationManager - [ProjInfo]
2023-05-09 17:03:31,679 [4] INFO  MosSim.Core.SystemUser.IecApplicationManager - Name=d:\inka\tcms
2023-05-09 17:03:31,679 [4] INFO  MosSim.Core.SystemUser.IecApplicationManager - Resource=Resource
2023-05-09 17:03:31,679 [4] INFO  MosSim.Core.SystemUser.IecApplicationManager - compiled=09.05.2023 17:03:23
2023-05-09 17:03:31,679 [4] INFO  MosSim.Core.SystemUser.IecApplicationManager - Version=315
2023-05-09 17:03:31,679 [4] INFO  MosSim.Core.SystemUser.IecApplicationManager - Comment=
2023-05-09 17:03:31,679 [4] INFO  MosSim.Core.SystemUser.IecApplicationManager - [ENVIRONMENT]
2023-05-09 17:03:31,679 [4] INFO  MosSim.Core.SystemUser.IecApplicationManager - CAP1131=5.12.0301.4309
2023-05-09 17:03:31,679 [4] INFO  MosSim.Core.SystemUser.IecApplicationManager - OS=MOS_CPU833_SIM V740.EC3C
2023-05-09 17:03:31,679 [4] INFO  MosSim.Core.SystemUser.IecApplicationManager - CPU=CPU833
2023-05-09 17:03:31,679 [4] INFO  MosSim.Core.SystemUser.IecApplicationManager - BUILD_OS=MOS_CPU833_SIM V740.EC3C
2023-05-09 17:03:31,679 [4] INFO  MosSim.Core.SystemUser.IecApplicationManager - 
2023-05-09 17:03:31,679 [4] DEBUG MosSim.Core.SystemUser.IecApplicationManager - IEC application was built on the current SIM1131 version 7.40.83
2023-05-09 17:03:31,679 [4] DEBUG StateMachineLogger - State machine  switched from state Loading to state Idle.
2023-05-09 17:03:31,679 [4] DEBUG StateMachineLogger - State machine  switched from state Idle to state Running.
2023-05-09 17:03:31,710 [5] DEBUG MosSim.SysComAdapter.SystemServerAdapter - layer 4 created
2023-05-09 17:03:31,710 [5] DEBUG MosSim.SysComAdapter.SystemServerAdapter - attaching media
2023-05-09 17:03:31,715 [5] DEBUG MosSim.SysComAdapter.SystemServerAdapter - media attached
2023-05-09 17:03:32,785 [9] DEBUG MosSim.SysComAdapter.SystemServerAdapter - server management 0x00000000, id=1
2023-05-09 17:03:32,786 [9] DEBUG MosSim.Core.SystemServer.MosSimSystemServer - server management: AddConnection id=1
2023-05-09 17:03:32,791 [9] DEBUG MosSim.SysComAdapter.SystemServerAdapter - server request 0x0000f010, id=1, cnt=1
2023-05-09 17:03:32,796 [9] DEBUG MosSim.Core.SystemServer.MosSimSystemServer - server command: PasswordLogin
2023-05-09 17:03:32,802 [9] DEBUG MosSim.SysComAdapter.SystemServerAdapter - server request 0x0000f010, id=1, cnt=1
2023-05-09 17:03:32,802 [9] DEBUG MosSim.Core.SystemServer.MosSimSystemServer - server command: PasswordLogin
2023-05-09 17:03:32,803 [9] DEBUG MosSim.SysComAdapter.SystemServerAdapter - server request 0x0000f071, id=1, cnt=1
2023-05-09 17:03:32,805 [9] DEBUG MosSim.Core.SystemServer.MosSimSystemServer - server command: InfoProject
2023-05-09 17:03:32,808 [9] DEBUG MosSim.SysComAdapter.SystemServerAdapter - server request 0x0000f071, id=1, cnt=1
2023-05-09 17:03:32,809 [9] DEBUG MosSim.Core.SystemServer.MosSimSystemServer - server command: InfoProject
2023-05-09 17:03:32,809 [9] DEBUG MosSim.Core.SystemServer.CmdGroupInfo - DllInfo: image base = 94633984
2023-05-09 17:03:32,810 [9] DEBUG MosSim.SysComAdapter.SystemServerAdapter - server request 0x0000f071, id=1, cnt=1
2023-05-09 17:03:32,810 [9] DEBUG MosSim.Core.SystemServer.MosSimSystemServer - server command: InfoProject
2023-05-09 17:03:32,811 [9] DEBUG MosSim.SysComAdapter.SystemServerAdapter - server request 0x0000106b, id=1, cnt=1
2023-05-09 17:03:32,813 [9] DEBUG MosSim.Core.SystemServer.MosSimSystemServer - server command: IoReadForceList
2023-05-09 17:03:32,911 [9] DEBUG MosSim.SysComAdapter.SystemServerAdapter - server request 0x00001064, id=1, cnt=1
2023-05-09 17:03:32,911 [9] DEBUG MosSim.Core.SystemServer.MosSimSystemServer - server command: IoDefMonList
2023-05-09 17:03:32,914 [9] DEBUG MosSim.Core.SystemServer.CmdGroupIo - define monitor list nr. 0 with 22 tacs 
tac  count          : 1
  data type      : Bit
  address type   : IomImage
  address.image  : I
  address.node   : 1
  address.module : 1
  address.offset : 2
  address.net    : 3
tac  count          : 1
  data type      : Bit
  address type   : IomImage
  address.image  : I
  address.node   : 2
  address.module : 2
  address.offset : 2
  address.net    : 3
tac  count          : 1
  data type      : Bit
  address type   : IomImage
  address.image  : I
  address.node   : 1
  address.module : 1
  address.offset : 0
  address.net    : 3
tac  count          : 1
  data type      : Bit
  address type   : IomImage
  address.image  : I
  address.node   : 1
  address.module : 1
  address.offset : 1
  address.net    : 3
tac  count          : 1
  data type      : Bit
  address type   : IomImage
  address.image  : I
  address.node   : 2
  address.module : 2
  address.offset : 0
  address.net    : 3
tac  count          : 1
  data type      : Bit
  address type   : IomImage
  address.image  : I
  address.node   : 2
  address.module : 2
  address.offset : 1
  address.net    : 3
tac  count          : 1
  data type      : Bit
  address type   : IomImage
  address.image  : I
  address.node   : 1
  address.module : 2
  address.offset : 29
  address.net    : 3
tac  count          : 1
  data type      : Bit
  address type   : IomImage
  address.image  : I
  address.node   : 2
  address.module : 2
  address.offset : 22
  address.net    : 3
tac  count          : 1
  data type      : Bit
  address type   : IomImage
  address.image  : I
  address.node   : 2
  address.module : 3
  address.offset : 2
  address.net    : 3
tac  count          : 1
  data type      : Bit
  address type   : IomImage
  address.image  : I
  address.node   : 2
  address.module : 3
  address.offset : 4
  address.net    : 3
tac  count          : 1
  data type      : Bit
  address type   : IomImage
  address.image  : I
  address.node   : 2
  address.module : 3
  address.offset : 0
  address.net    : 3
tac  count          : 1
  data type      : DWord
  address type   : IomImage
  address.image  : M
  address.node   : 0
  address.module : 20
  address.offset : 0
  address.net    : 0
tac  count          : 1
  data type      : DWord
  address type   : IomImage
  address.image  : M
  address.node   : 0
  address.module : 0
  address.offset : 0
  address.net    : 0
tac  count          : 1
  data type      : Word
  address type   : IomImage
  address.image  : M
  address.node   : 0
  address.module : 10
  address.offset : 0
  address.net    : 0
tac  count          : 1
  data type      : Word
  address type   : IomImage
  address.image  : M
  address.node   : 0
  address.module : 11
  address.offset : 0
  address.net    : 0
tac  count          : 1
  data type      : Word
  address type   : IomImage
  address.image  : M
  address.node   : 0
  address.module : 12
  address.offset : 0
  address.net    : 0
tac  count          : 1
  data type      : Word
  address type   : IomImage
  address.image  : M
  address.node   : 0
  address.module : 13
  address.offset : 0
  address.net    : 0
tac  count          : 1
  data type      : DWord
  address type   : IomImage
  address.image  : M
  address.node   : 0
  address.module : 2
  address.offset : 0
  address.net    : 0
tac  count          : 1
  data type      : DWord
  address type   : IomImage
  address.image  : M
  address.node   : 0
  address.module : 3
  address.offset : 0
  address.net    : 0
tac  count          : 1
  data type      : Bit
  address type   : IomImage
  address.image  : M
  address.node   : 0
  address.module : 5
  address.offset : 0
  address.net    : 0
tac  count          : 1
  data type      : Bit
  address type   : IomImage
  address.image  : M
  address.node   : 0
  address.module : 5
  address.offset : 1
  address.net    : 0
tac  count          : 1
  data type      : Bit
  address type   : IomImage
  address.image  : M
  address.node   : 0
  address.module : 0
  address.offset : 1
  address.net    : 0
2023-05-09 17:03:32,930 [9] DEBUG MosSim.SysComAdapter.SystemServerAdapter - server request 0x0000f070, id=1, cnt=1
2023-05-09 17:03:32,930 [9] DEBUG MosSim.Core.SystemServer.MosSimSystemServer - server command: InfoCpu
2023-05-09 17:03:33,228 [9] DEBUG MosSim.SysComAdapter.SystemServerAdapter - server request 0x00001065, id=1, cnt=1
2023-05-09 17:03:33,228 [9] DEBUG MosSim.Core.SystemServer.MosSimSystemServer - server command: IoReadMonList
2023-05-09 17:03:33,229 [9] DEBUG MosSim.Core.SystemServer.CmdGroupIo - read monitor list nr. 0 with 22 tacs
2023-05-09 17:03:33,235 [9] DEBUG MosSim.Core.SystemMarkers.SystemMarkerManager - tac: items count   : 1
  data type  : DWord
  address.image  : M
  address.node   : 0
  address.module : 20
  address.offset : 0
  address.net    : 0

2023-05-09 17:03:33,235 [9] DEBUG MosSim.Core.SystemMarkers.SystemMarkerManager - tac: items count   : 1
  data type  : DWord
  address.image  : M
  address.node   : 0
  address.module : 0
  address.offset : 0
  address.net    : 0

2023-05-09 17:03:33,235 [9] DEBUG MosSim.Core.SystemMarkers.SystemMarkerManager - tac: items count   : 1
  data type  : Word
  address.image  : M
  address.node   : 0
  address.module : 10
  address.offset : 0
  address.net    : 0

2023-05-09 17:03:33,235 [9] DEBUG MosSim.Core.SystemMarkers.SystemMarkerManager - tac: items count   : 1
  data type  : Word
  address.image  : M
  address.node   : 0
  address.module : 11
  address.offset : 0
  address.net    : 0

2023-05-09 17:03:33,235 [9] DEBUG MosSim.Core.SystemMarkers.SystemMarkerManager - tac: items count   : 1
  data type  : Word
  address.image  : M
  address.node   : 0
  address.module : 12
  address.offset : 0
  address.net    : 0

2023-05-09 17:03:33,235 [9] DEBUG MosSim.Core.SystemMarkers.SystemMarkerManager - tac: items count   : 1
  data type  : Word
  address.image  : M
  address.node   : 0
  address.module : 13
  address.offset : 0
  address.net    : 0

2023-05-09 17:03:33,235 [9] DEBUG MosSim.Core.SystemMarkers.SystemMarkerManager - tac: items count   : 1
  data type  : DWord
  address.image  : M
  address.node   : 0
  address.module : 2
  address.offset : 0
  address.net    : 0

2023-05-09 17:03:33,235 [9] DEBUG MosSim.Core.SystemMarkers.SystemMarkerManager - tac: items count   : 1
  data type  : DWord
  address.image  : M
  address.node   : 0
  address.module : 3
  address.offset : 0
  address.net    : 0

2023-05-09 17:03:33,235 [9] DEBUG MosSim.Core.SystemMarkers.SystemMarkerManager - tac: items count   : 1
  data type  : Bit
  address.image  : M
  address.node   : 0
  address.module : 5
  address.offset : 0
  address.net    : 0

2023-05-09 17:03:33,235 [9] DEBUG MosSim.Core.SystemMarkers.SystemMarkerManager - tac: items count   : 1
  data type  : Bit
  address.image  : M
  address.node   : 0
  address.module : 5
  address.offset : 1
  address.net    : 0

2023-05-09 17:03:33,235 [9] DEBUG MosSim.Core.SystemMarkers.SystemMarkerManager - tac: items count   : 1
  data type  : Bit
  address.image  : M
  address.node   : 0
  address.module : 0
  address.offset : 1
  address.net    : 0

2023-05-09 17:03:33,718 [9] DEBUG MosSim.SysComAdapter.SystemServerAdapter - server request 0x00001064, id=1, cnt=1
2023-05-09 17:03:33,718 [9] DEBUG MosSim.Core.SystemServer.MosSimSystemServer - server command: IoDefMonList
2023-05-09 17:03:33,719 [9] DEBUG MosSim.Core.SystemServer.CmdGroupIo - define monitor list nr. 0 with 11 tacs 
tac  count          : 1
  data type      : Bit
  address type   : IomImage
  address.image  : I
  address.node   : 1
  address.module : 1
  address.offset : 2
  address.net    : 3
tac  count          : 1
  data type      : Bit
  address type   : IomImage
  address.image  : I
  address.node   : 2
  address.module : 2
  address.offset : 2
  address.net    : 3
tac  count          : 1
  data type      : Bit
  address type   : IomImage
  address.image  : I
  address.node   : 1
  address.module : 1
  address.offset : 0
  address.net    : 3
tac  count          : 1
  data type      : Bit
  address type   : IomImage
  address.image  : I
  address.node   : 1
  address.module : 1
  address.offset : 1
  address.net    : 3
tac  count          : 1
  data type      : Bit
  address type   : IomImage
  address.image  : I
  address.node   : 2
  address.module : 2
  address.offset : 0
  address.net    : 3
tac  count          : 1
  data type      : Bit
  address type   : IomImage
  address.image  : I
  address.node   : 2
  address.module : 2
  address.offset : 1
  address.net    : 3
tac  count          : 1
  data type      : Bit
  address type   : IomImage
  address.image  : I
  address.node   : 1
  address.module : 2
  address.offset : 29
  address.net    : 3
tac  count          : 1
  data type      : Bit
  address type   : IomImage
  address.image  : I
  address.node   : 2
  address.module : 2
  address.offset : 22
  address.net    : 3
tac  count          : 1
  data type      : Bit
  address type   : IomImage
  address.image  : I
  address.node   : 2
  address.module : 3
  address.offset : 2
  address.net    : 3
tac  count          : 1
  data type      : Bit
  address type   : IomImage
  address.image  : I
  address.node   : 2
  address.module : 3
  address.offset : 4
  address.net    : 3
tac  count          : 1
  data type      : Bit
  address type   : IomImage
  address.image  : I
  address.node   : 2
  address.module : 3
  address.offset : 0
  address.net    : 3
2023-05-09 17:03:34,227 [9] DEBUG MosSim.SysComAdapter.SystemServerAdapter - server request 0x00001065, id=1, cnt=1
2023-05-09 17:03:34,228 [9] DEBUG MosSim.Core.SystemServer.MosSimSystemServer - server command: IoReadMonList
2023-05-09 17:03:34,228 [9] DEBUG MosSim.Core.SystemServer.CmdGroupIo - read monitor list nr. 0 with 11 tacs
2023-05-09 17:03:34,720 [9] DEBUG MosSim.SysComAdapter.SystemServerAdapter - server request 0x00001065, id=1, cnt=1
2023-05-09 17:03:34,720 [9] DEBUG MosSim.Core.SystemServer.MosSimSystemServer - server command: IoReadMonList
2023-05-09 17:03:34,720 [9] DEBUG MosSim.Core.SystemServer.CmdGroupIo - read monitor list nr. 0 with 11 tacs
2023-05-09 17:03:35,226 [9] DEBUG MosSim.SysComAdapter.SystemServerAdapter - server request 0x00001065, id=1, cnt=1
2023-05-09 17:03:35,226 [9] DEBUG MosSim.Core.SystemServer.MosSimSystemServer - server command: IoReadMonList
2023-05-09 17:03:35,226 [9] DEBUG MosSim.Core.SystemServer.CmdGroupIo - read monitor list nr. 0 with 11 tacs
2023-05-09 17:03:35,718 [9] DEBUG MosSim.SysComAdapter.SystemServerAdapter - server request 0x00001065, id=1, cnt=1
2023-05-09 17:03:35,718 [9] DEBUG MosSim.Core.SystemServer.MosSimSystemServer - server command: IoReadMonList
2023-05-09 17:03:35,718 [9] DEBUG MosSim.Core.SystemServer.CmdGroupIo - read monitor list nr. 0 with 11 tacs
2023-05-09 17:03:36,227 [9] DEBUG MosSim.SysComAdapter.SystemServerAdapter - server request 0x00001065, id=1, cnt=1
2023-05-09 17:03:36,227 [9] DEBUG MosSim.Core.SystemServer.MosSimSystemServer - server command: IoReadMonList
2023-05-09 17:03:36,227 [9] DEBUG MosSim.Core.SystemServer.CmdGroupIo - read monitor list nr. 0 with 11 tacs
2023-05-09 17:03:36,719 [9] DEBUG MosSim.SysComAdapter.SystemServerAdapter - server request 0x00001065, id=1, cnt=1
2023-05-09 17:03:36,720 [9] DEBUG MosSim.Core.SystemServer.MosSimSystemServer - server command: IoReadMonList
2023-05-09 17:03:36,720 [9] DEBUG MosSim.Core.SystemServer.CmdGroupIo - read monitor list nr. 0 with 11 tacs
2023-05-09 17:03:37,230 [9] DEBUG MosSim.SysComAdapter.SystemServerAdapter - server request 0x00001065, id=1, cnt=1
2023-05-09 17:03:37,230 [9] DEBUG MosSim.Core.SystemServer.MosSimSystemServer - server command: IoReadMonList
2023-05-09 17:03:37,230 [9] DEBUG MosSim.Core.SystemServer.CmdGroupIo - read monitor list nr. 0 with 11 tacs
2023-05-09 17:03:37,727 [9] DEBUG MosSim.SysComAdapter.SystemServerAdapter - server request 0x00001065, id=1, cnt=1
2023-05-09 17:03:37,727 [9] DEBUG MosSim.Core.SystemServer.MosSimSystemServer - server command: IoReadMonList
2023-05-09 17:03:37,727 [9] DEBUG MosSim.Core.SystemServer.CmdGroupIo - read monitor list nr. 0 with 11 tacs
2023-05-09 17:03:38,216 [9] DEBUG MosSim.SysComAdapter.SystemServerAdapter - server request 0x00001065, id=1, cnt=1
2023-05-09 17:03:38,216 [9] DEBUG MosSim.Core.SystemServer.MosSimSystemServer - server command: IoReadMonList
2023-05-09 17:03:38,216 [9] DEBUG MosSim.Core.SystemServer.CmdGroupIo - read monitor list nr. 0 with 11 tacs
2023-05-09 17:03:38,722 [9] DEBUG MosSim.SysComAdapter.SystemServerAdapter - server request 0x00001065, id=1, cnt=1
2023-05-09 17:03:38,722 [9] DEBUG MosSim.Core.SystemServer.MosSimSystemServer - server command: IoReadMonList
2023-05-09 17:03:38,722 [9] DEBUG MosSim.Core.SystemServer.CmdGroupIo - read monitor list nr. 0 with 11 tacs
2023-05-09 17:03:38,790 [9] DEBUG MosSim.SysComAdapter.SystemServerAdapter - server request 0x0000f071, id=1, cnt=1
2023-05-09 17:03:38,790 [9] DEBUG MosSim.Core.SystemServer.MosSimSystemServer - server command: InfoProject
2023-05-09 17:03:39,215 [9] DEBUG MosSim.SysComAdapter.SystemServerAdapter - server request 0x00001065, id=1, cnt=1
2023-05-09 17:03:39,215 [9] DEBUG MosSim.Core.SystemServer.MosSimSystemServer - server command: IoReadMonList
2023-05-09 17:03:39,215 [9] DEBUG MosSim.Core.SystemServer.CmdGroupIo - read monitor list nr. 0 with 11 tacs
2023-05-09 17:03:39,598 [9] DEBUG MosSim.SysComAdapter.SystemServerAdapter - server request 0x00001065, id=1, cnt=1
2023-05-09 17:03:39,598 [9] DEBUG MosSim.Core.SystemServer.MosSimSystemServer - server command: IoReadMonList
2023-05-09 17:03:39,598 [9] DEBUG MosSim.Core.SystemServer.CmdGroupIo - read monitor list nr. 0 with 11 tacs
2023-05-09 17:03:39,868 [9] DEBUG MosSim.SysComAdapter.SystemServerAdapter - server request 0x00001065, id=1, cnt=1
2023-05-09 17:03:39,868 [9] DEBUG MosSim.Core.SystemServer.MosSimSystemServer - server command: IoReadMonList
2023-05-09 17:03:39,868 [9] DEBUG MosSim.Core.SystemServer.CmdGroupIo - read monitor list nr. 0 with 11 tacs
2023-05-09 17:03:40,123 [9] DEBUG MosSim.SysComAdapter.SystemServerAdapter - server request 0x00001065, id=1, cnt=1
2023-05-09 17:03:40,123 [9] DEBUG MosSim.Core.SystemServer.MosSimSystemServer - server command: IoReadMonList
2023-05-09 17:03:40,123 [9] DEBUG MosSim.Core.SystemServer.CmdGroupIo - read monitor list nr. 0 with 11 tacs
2023-05-09 17:03:40,392 [9] DEBUG MosSim.SysComAdapter.SystemServerAdapter - server request 0x00001065, id=1, cnt=1
2023-05-09 17:03:40,392 [9] DEBUG MosSim.Core.SystemServer.MosSimSystemServer - server command: IoReadMonList
2023-05-09 17:03:40,392 [9] DEBUG MosSim.Core.SystemServer.CmdGroupIo - read monitor list nr. 0 with 11 tacs
2023-05-09 17:03:40,677 [9] DEBUG MosSim.SysComAdapter.SystemServerAdapter - server request 0x00001065, id=1, cnt=1
2023-05-09 17:03:40,677 [9] DEBUG MosSim.Core.SystemServer.MosSimSystemServer - server command: IoReadMonList
2023-05-09 17:03:40,677 [9] DEBUG MosSim.Core.SystemServer.CmdGroupIo - read monitor list nr. 0 with 11 tacs
2023-05-09 17:03:40,948 [9] DEBUG MosSim.SysComAdapter.SystemServerAdapter - server request 0x00001065, id=1, cnt=1
2023-05-09 17:03:40,948 [9] DEBUG MosSim.Core.SystemServer.MosSimSystemServer - server command: IoReadMonList
2023-05-09 17:03:40,948 [9] DEBUG MosSim.Core.SystemServer.CmdGroupIo - read monitor list nr. 0 with 11 tacs
2023-05-09 17:03:41,202 [9] DEBUG MosSim.SysComAdapter.SystemServerAdapter - server request 0x00001065, id=1, cnt=1
2023-05-09 17:03:41,203 [9] DEBUG MosSim.Core.SystemServer.MosSimSystemServer - server command: IoReadMonList
2023-05-09 17:03:41,203 [9] DEBUG MosSim.Core.SystemServer.CmdGroupIo - read monitor list nr. 0 with 11 tacs
2023-05-09 17:03:41,453 [9] DEBUG MosSim.SysComAdapter.SystemServerAdapter - server request 0x00001065, id=1, cnt=1
2023-05-09 17:03:41,453 [9] DEBUG MosSim.Core.SystemServer.MosSimSystemServer - server command: IoReadMonList
2023-05-09 17:03:41,453 [9] DEBUG MosSim.Core.SystemServer.CmdGroupIo - read monitor list nr. 0 with 11 tacs
2023-05-09 17:03:41,602 [8] DEBUG MosSim.Core.SystemUser.IecTaskRunner - Iteration 455309 completed. (Current time 17:03:41.5984)
2023-05-09 17:03:41,727 [9] DEBUG MosSim.SysComAdapter.SystemServerAdapter - server request 0x00001065, id=1, cnt=1
2023-05-09 17:03:41,727 [9] DEBUG MosSim.Core.SystemServer.MosSimSystemServer - server command: IoReadMonList
2023-05-09 17:03:41,727 [9] DEBUG MosSim.Core.SystemServer.CmdGroupIo - read monitor list nr. 0 with 11 tacs
2023-05-09 17:03:41,981 [9] DEBUG MosSim.SysComAdapter.SystemServerAdapter - server request 0x00001065, id=1, cnt=1
2023-05-09 17:03:41,981 [9] DEBUG MosSim.Core.SystemServer.MosSimSystemServer - server command: IoReadMonList
2023-05-09 17:03:41,982 [9] DEBUG MosSim.Core.SystemServer.CmdGroupIo - read monitor list nr. 0 with 11 tacs
2023-05-09 17:03:42,250 [9] DEBUG MosSim.SysComAdapter.SystemServerAdapter - server request 0x00001065, id=1, cnt=1
2023-05-09 17:03:42,250 [9] DEBUG MosSim.Core.SystemServer.MosSimSystemServer - server command: IoReadMonList
2023-05-09 17:03:42,250 [9] DEBUG MosSim.Core.SystemServer.CmdGroupIo - read monitor list nr. 0 with 11 tacs
2023-05-09 17:03:42,519 [9] DEBUG MosSim.SysComAdapter.SystemServerAdapter - server request 0x00001065, id=1, cnt=1
2023-05-09 17:03:42,519 [9] DEBUG MosSim.Core.SystemServer.MosSimSystemServer - server command: IoReadMonList
2023-05-09 17:03:42,519 [9] DEBUG MosSim.Core.SystemServer.CmdGroupIo - read monitor list nr. 0 with 11 tacs
2023-05-09 17:03:42,789 [9] DEBUG MosSim.SysComAdapter.SystemServerAdapter - server request 0x00001065, id=1, cnt=1
2023-05-09 17:03:42,789 [9] DEBUG MosSim.Core.SystemServer.MosSimSystemServer - server command: IoReadMonList
2023-05-09 17:03:42,789 [9] DEBUG MosSim.Core.SystemServer.CmdGroupIo - read monitor list nr. 0 with 11 tacs
2023-05-09 17:03:43,059 [9] DEBUG MosSim.SysComAdapter.SystemServerAdapter - server request 0x00001065, id=1, cnt=1
2023-05-09 17:03:43,059 [9] DEBUG MosSim.Core.SystemServer.MosSimSystemServer - server command: IoReadMonList
2023-05-09 17:03:43,059 [9] DEBUG MosSim.Core.SystemServer.CmdGroupIo - read monitor list nr. 0 with 11 tacs
2023-05-09 17:03:43,312 [9] DEBUG MosSim.SysComAdapter.SystemServerAdapter - server request 0x00001065, id=1, cnt=1
2023-05-09 17:03:43,312 [9] DEBUG MosSim.Core.SystemServer.MosSimSystemServer - server command: IoReadMonList
2023-05-09 17:03:43,312 [9] DEBUG MosSim.Core.SystemServer.CmdGroupIo - read monitor list nr. 0 with 11 tacs
2023-05-09 17:03:43,512 [9] DEBUG MosSim.SysComAdapter.SystemServerAdapter - server request 0x0000f011, id=1, cnt=1
2023-05-09 17:03:43,513 [9] DEBUG MosSim.Core.SystemServer.MosSimSystemServer - server command: PasswordLogout
2023-05-09 17:03:43,513 [9] DEBUG MosSim.SysComAdapter.SystemServerAdapter - server request 0x0000f011, id=1, cnt=1
2023-05-09 17:03:43,514 [9] DEBUG MosSim.Core.SystemServer.MosSimSystemServer - server command: PasswordLogout
2023-05-09 17:03:43,514 [9] DEBUG MosSim.SysComAdapter.SystemServerAdapter - server management 0x00000001, id=1
2023-05-09 17:03:43,514 [9] DEBUG MosSim.Core.SystemServer.MosSimSystemServer - server management: RemoveConnection id=1
2023-05-09 17:03:43,629 [11] DEBUG MosSim.Console.MosSimConsole - handling event 2
2023-05-09 17:03:43,629 [11] INFO  MosSim.Console.MosSimConsole - shutdown initiated
2023-05-09 17:03:43,681 [5] DEBUG MosSim.SysComAdapter.SystemServerAdapter - destroying layer 4
2023-05-09 17:03:43,712 [5] DEBUG MosSim.SysComAdapter.SystemServerAdapter - layer 4 destroyed
2023-05-09 17:03:43,712 [1] DEBUG MosSim.Console.MosSimConsole - aggregate exception: One or more errors occurred.
2023-05-09 17:03:43,712 [1] DEBUG MosSim.Console.MosSimConsole - inner exception: A task was canceled.
2023-05-09 17:03:43,712 [1] DEBUG MosSim.Console.MosSimConsole - result: ProcessClosedFromExternal
2023-05-09 17:03:43,712 [1] INFO  MosSim.Console.MosSimConsole - Exiting with code -4
2023-05-09 17:03:43,712 [1] DEBUG MosSim.Console.MosSimConsole - *** shutting down
